<svg width="10" height="18" viewBox="0 0 10 18" fill="none" xmlns="http://www.w3.org/2000/svg">
<path d="M6.4908 17.9978V9.78899H9.43911L9.88051 6.58988H6.4908V4.54734C6.4908 3.62115 6.76604 2.98989 8.18733 2.98989L10 2.98911V0.127874C9.68636 0.0890285 8.61042 0.00195312 7.35864 0.00195312C4.74517 0.00195312 2.95593 1.49275 2.95593 4.23067V6.58997H0V9.78907H2.95584V17.9979L6.4908 17.9978Z" fill="#CB000B"/>
</svg>
