<svg width="24" height="24" viewBox="0 0 24 24" fill="none" xmlns="http://www.w3.org/2000/svg">
<path d="M20.5 10C20.5 13.7822 18.3333 16.916 15.9598 19.2005C14.7886 20.3278 13.6119 21.2036 12.7269 21.7973C12.4519 21.9817 12.2066 22.138 12 22.2652C11.7934 22.138 11.5481 21.9817 11.2731 21.7973C10.3881 21.2036 9.21141 20.3278 8.0402 19.2005C5.66667 16.916 3.5 13.7822 3.5 10C3.5 5.30558 7.30558 1.5 12 1.5C16.6944 1.5 20.5 5.30558 20.5 10Z" stroke="#BD0000" stroke-width="3"/>
<circle cx="12" cy="10" r="4" stroke="#BD0000" stroke-width="2"/>
</svg>
